— Day 9: Encoding Error —
================
Fleur Kelpin
Dec 9, 2020

    library(tidyverse)
    input <- readr::read_csv("day09.txt")[[1]]
    as_tibble(input)

    ## # A tibble: 999 x 1
    ##    value
    ##    <dbl>
    ##  1     3
    ##  2    36
    ##  3    14
    ##  4    50
    ##  5     8
    ##  6     2
    ##  7    44
    ##  8    30
    ##  9    37
    ## 10    20
    ## # … with 989 more rows
…
