— Day 8: Handheld Halting —
================
Fleur Kelpin
Dec 8, 2020

    library(tidyverse)
    input <- readr::read_lines("day08.txt") %>%
      tibble(instruction=.)
    input

    ## # A tibble: 617 x 1
    ##    instruction
    ##    <chr>      
    ##  1 acc -5     
    ##  2 nop +333   
    ##  3 acc +45    
    ##  4 jmp +288   
    ##  5 acc -9     
    ##  6 jmp +1     
    ##  7 acc +27    
    ##  8 jmp +464   
    ##  9 acc +34    
    ## 10 jmp +478   
    ## # … with 607 more rows

# Part 1

First let’s parse the instructions.

    program <- input %>%
      extract(instruction,
              into=c("operation", "argument"),
              regex="(\\w+) ([+-]\\d+)",
              convert = TRUE)
    program

    ## # A tibble: 617 x 2
    ##    operation argument
    ##    <chr>        <int>
    ##  1 acc             -5
    ##  2 nop            333
    ##  3 acc             45
    ##  4 jmp            288
    ##  5 acc             -9
    ##  6 jmp              1
    ##  7 acc             27
    ##  8 jmp            464
    ##  9 acc             34
    ## 10 jmp            478
    ## # … with 607 more rows
…
