…
    library(tidyverse)
    input <- read_csv("day02.txt",
      col_names = "line",
      col_types = cols(line = col_character())
    ) %>%
      extract(line,
        "(\\d+)-(\\d+) (\\w): (\\w+)",
        into = c("min", "max", "char", "pwd"),
        convert = TRUE
      )
    input

    ## # A tibble: 1,000 x 4
    ##      min   max char  pwd                
    ##    <int> <int> <chr> <chr>              
    ##  1     1     4 n     nnnnn              
    ##  2     5     7 z     qhcgzzz            
    ##  3     7    11 m     mmmmmmsmmmmm       
    ##  4     5     8 d     ldddtdgnzddddwl    
    ##  5    16    18 q     qsqqqqqqqqqpqqqlqhq
    ##  6     5     7 s     bwkbdlwns          
    ##  7    14    17 v     vvvvvvvvvvvvvpvvxv 
    ##  8     4     5 v     mvkvvn             
    ##  9     2     5 h     lcwghhkpkxvzkvrmxrv
    ## 10     2     9 m     kmdvdlvxmhgsmlzp   
    ## # … with 990 more rows
…
