— Day 5: Binary Boarding —
================
Fleur Kelpin
Dec 5, 2020

    library(tidyverse)
    input <- read_lines("day05.txt")
    as_tibble(input)

    ## # A tibble: 876 x 1
    ##    value     
    ##    <chr>     
    ##  1 BFBBBBFRLL
    ##  2 FBFBFFBRLL
    ##  3 BBFBBFBLRL
    ##  4 BFFFBBFLLR
    ##  5 BFFFFBBLRL
    ##  6 BFBBFBFRRL
    ##  7 FBBFBFBRRR
    ##  8 FFBFBFFRLR
    ##  9 BBBFFBFLLL
    ## 10 BFFBBBBRRL
    ## # … with 866 more rows
…
