…
      ) %>%
      extract("line",
        into = "iyr", regex = "iyr:([^\\s]+)", remove = FALSE, convert = TRUE
      ) %>%
      extract("line",
        into = "eyr", regex = "eyr:([^\\s]+)", remove = FALSE, convert = TRUE
      ) %>%
      extract("line", into = "hgt", regex = "hgt:([^\\s]+)", remove = FALSE) %>%
      extract("line", into = "hcl", regex = "hcl:([^\\s]+)", remove = FALSE) %>%
      extract("line", into = "ecl", regex = "ecl:([^\\s]+)", remove = FALSE) %>%
      extract("line", into = "pid", regex = "pid:([^\\s]+)", remove = FALSE) %>%
      extract("line", into = "cid", regex = "cid:([^\\s]+)")
    passports

    ## # A tibble: 282 x 8
    ##    cid   pid       ecl   hcl     hgt     eyr   iyr   byr
    ##    <chr> <chr>     <chr> <chr>   <chr> <int> <int> <int>
    ##  1 <NA>  662406624 amb   #cfa07d 150cm  2024  2015  1947
    ##  2 102   018128535 gry   #ceb3a1 182cm  2027  2013  1997
    ##  3 <NA>  916315544 oth   #733820 61in     NA  2014    NA
    ##  4 132   726519569 grn   #a97842 184cm  2026  2011  1980
    ##  5 69    619743219 grn   #6b5442 176cm  2027  2012  1980
    ##  6 <NA>  982796633 brn   #602927 164cm  2020  2014  1969
    ##  7 <NA>  15115163  gmt   bfab0d  <NA>   2039  1987  2006
    ##  8 117   322719183 brn   #efcc98 176cm  2020  2010  1957
    ##  9 <NA>  838813262 blu   #38f7fd 178cm  2029  2019  1954
    ## 10 <NA>  242570886 amb   #18171d 192cm  2023  2020  1927
    ## # … with 272 more rows
…
