…
R likes vectors, so let’s number the seats, then the state becomes a
boolean vector.

    seat_coords <- as_tibble(which(seats, arr.ind = TRUE)) %>%
      mutate(number = row_number())

    num_seats <- nrow(seat_coords)

    seat_num <- function(i, j) {
      filter(seat_coords, row == i & col == j)$number
    }

    seat_coords

    ## # A tibble: 6,823 x 3
    ##      row   col number
    ##    <int> <int>  <int>
    ##  1     1     1      1
    ##  2     2     1      2
    ##  3     3     1      3
    ##  4     4     1      4
    ##  5     5     1      5
    ##  6     6     1      6
    ##  7     7     1      7
    ##  8     8     1      8
    ##  9    10     1      9
    ## 10    11     1     10
    ## # … with 6,813 more rows
…
