…
    library(tidyverse)
    input <- tibble(line = readLines("day19-rules.txt")) %>%
      extract(line, c("number", "rules"), "(\\d+): (.*)") %>%
      extract(rules, "letters", "\"(\\w)\"", remove = F) %>%
      extract(rules, c("alt1", NA, "alt2"), "([0-9 ]*)(\\|(.*))?") %>%
      mutate(number = as.integer(number)) %>%
      extract(alt1, c("alt1a", "alt1b"), "([0-9]+)( [0-9]+)?", convert = T) %>%
      extract(alt2, c("alt2a", "alt2b"), "([0-9]+)( [0-9]+)?", convert = T) %>%
      arrange(number)
    input

    ## # A tibble: 131 x 6
    ##    number alt1a alt1b alt2a alt2b letters
    ##     <int> <int> <int> <int> <int> <chr>  
    ##  1      0     8    11    NA    NA <NA>   
    ##  2      1    39    64   110    44 <NA>   
    ##  3      2   124   110    88    39 <NA>   
    ##  4      3    39     5   110   100 <NA>   
    ##  5      4    39    74   110    44 <NA>   
    ##  6      5   109   110   117    39 <NA>   
    ##  7      6    12    39   128   110 <NA>   
    ##  8      7   101    39    13   110 <NA>   
    ##  9      8    42    NA    NA    NA <NA>   
    ## 10      9    24   110    89    39 <NA>   
    ## # … with 121 more rows

    messages <- tibble(message = readLines("day19-messages.txt"))
    messages

    ## # A tibble: 502 x 1
    ##    message                                                                      
    ##    <chr>                                                                        
    ##  1 aaababaaaaaabbbaaaabbaaa                                                     
    ##  2 aaaabbbaaaaaabaaabbabaabbbbaabaaabbbababbbbabbabababaaaa                     
    ##  3 aabaababaabaaaaabbbbbbbbaaabbbaabababbabbaababaabbbabbabaababaaababaaabaaaab…
    ##  4 ababbabaabaaaabbbbbbaaabaabbbaabbaaaabbababbaaaaababbbbb                     
    ##  5 aabbbababbabbbbaaaabbaba                                                     
    ##  6 baababbaaabbbabbbbbaabbbbaabbaaaaabbbbab                                     
    ##  7 aaaabbbaaabbaabbbaabbabb                                                     
    ##  8 baaaabbbabaaabbbbbabbaabbbaabbabbbbaababaabbbbabbababababbaaabbb             
    ##  9 aabbbababbbaaabbbabbbbba                                                     
    ## 10 abbabbaabaabbbabbbaabaaaabbbbbaabbaaaabb                                     
    ## # … with 492 more rows
…
