— Day 18: Operation Order —
================
Fleur Kelpin
Dec 18, 2020

    library(tidyverse)
    library(Ramble)
    input <- readLines("day18.txt") %>%
      map_chr(~ str_remove_all(., "\\s"))
    tibble(input)

    ## # A tibble: 374 x 1
    ##    input                                                                        
    ##    <chr>                                                                        
    ##  1 (9+4*9*4)+3+7*8                                                              
    ##  2 4*4*(8+4*2*3+(6+6*7+6)+(7+4*9*7+2))                                          
    ##  3 6+((8+2)*(2*6*9*6*5))+5                                                      
    ##  4 9*6+((7*6*8*2+9*5)+(3+2*8*5+4)*8*6+8+6)+8+(7*(9+7+3*5+7+8)+(6*7+8+9+7)*5*(7+…
    ##  5 2*(7+4+7*(8+9)+5*3)*4+(9*4*5)                                                
    ##  6 (9*9+9*7+(8+4*6)+(9+3+9+7*5+2))*3                                            
    ##  7 9*7+4+((4*9)*4*(7+7*8*3)*(6*7*7*4+9*8))*4*8                                  
    ##  8 4+9*2+(2+(6*5*6)+3*4+6)                                                      
    ##  9 6+7+(6*(3+8*6*8)*(2+6*5+6+5)*(6+3+3+3+8*6))*(9*2*(8+6*3+8*9))+5              
    ## 10 (7*8+3*2*8*(7*6+3*4))+(5+3+3+3+(6+5*9+7*7+5))+(7*9*(5*9)+3+(3*3*4*9*3)+5)+6  
    ## # … with 364 more rows
…
