— Day 12: Rain Risk —
================
Fleur Kelpin
Dec 12, 2020

    library(tidyverse)
    input <- read_csv(file = "day12.txt", col_names = "input") %>%
      extract(input, "(\\w)(\\d+)", into = c("action", "value"), convert = TRUE)
    input

    ## # A tibble: 773 x 2
    ##    action value
    ##    <chr>  <int>
    ##  1 W          5
    ##  2 F         63
    ##  3 S          1
    ##  4 L         90
    ##  5 F         89
    ##  6 W          4
    ##  7 F         45
    ##  8 W          4
    ##  9 F         71
    ## 10 R         90
    ## # … with 763 more rows
…
