…
    your_ticket <-
      "137,173,167,139,73,67,61,179,103,113,163,71,97,101,109,59,131,127,107,53"
    nearby_tickets <- tibble(values = readLines("day16-nearby.txt"))
    nearby_tickets

    ## # A tibble: 245 x 1
    ##    values                                                                       
    ##    <chr>                                                                        
    ##  1 122,945,480,667,824,475,800,224,297,602,673,513,641,524,835,981,54,184,60,721
    ##  2 692,125,595,331,803,765,721,249,729,162,226,523,821,137,297,588,296,299,720,…
    ##  3 851,112,324,163,805,544,563,372,590,228,264,590,290,491,799,677,881,573,584,…
    ##  4 318,471,224,717,144,113,521,320,280,234,522,833,515,514,543,630,128,221,279,…
    ##  5 466,234,233,845,296,757,675,841,113,135,464,732,220,575,769,693,231,187,548,…
    ##  6 179,471,485,215,287,334,848,153,546,473,238,675,487,56,595,484,279,366,692,8…
    ##  7 532,422,215,370,552,577,171,757,58,686,169,830,849,52,422,128,218,630,424,419
    ##  8 113,466,896,241,98,552,339,561,55,564,279,757,514,825,124,842,464,668,222,358
    ##  9 547,888,333,370,221,20,834,100,555,339,721,860,557,477,430,635,230,467,290,8…
    ## 10 599,166,826,588,831,129,188,669,74,820,640,876,669,825,231,163,280,282,64,474
    ## # … with 235 more rows
…
