— Day 14: Docking Data —
================
Fleur Kelpin
Dec 14, 2020

    library(tidyverse)
    input <- tibble(line = readLines("day14.txt")) %>%
      extract(line, "mask", "mask = ([01X]{36})", remove = FALSE) %>%
      extract(line, c("address", "value"), "mem\\[(\\d+)\\] = (\\d+)", convert = TRUE)
    input

    ## # A tibble: 570 x 3
    ##    address     value mask                                
    ##      <int>     <int> <chr>                               
    ##  1      NA        NA 0111X10100100X1111X10010X000X1000001
    ##  2   50907 468673978 <NA>                                
    ##  3   22295   3337449 <NA>                                
    ##  4   58474  56418393 <NA>                                
    ##  5   15362    243184 <NA>                                
    ##  6   65089 110688658 <NA>                                
    ##  7      NA        NA 010X010XX110X01X01X10X001001011X110X
    ##  8   21952    950257 <NA>                                
    ##  9   44861 522064487 <NA>                                
    ## 10   38886  28536885 <NA>                                
    ## # … with 560 more rows
…
