— Day 20: Jurassic Jigsaw —
================
Fleur Kelpin
Dec 20, 2020

    library(tidyverse)
    input <- read_file("day20.txt") %>%
      str_split("\\n\\n") %>%
      unlist() %>%
      {tibble(line=.)} %>%
      extract(line, c("id", "tile", NA), "Tile (\\d+):\\n((.|\\n)*)$", convert = T) %>%
      mutate(num=row_number())
    input

    ## # A tibble: 144 x 3
    ##       id tile                                                                num
    ##    <int> <chr>                                                             <int>
    ##  1  3571 "##..##....\n..##..#..#\n#...##....\n.....#...#\n..........\n...…     1
    ##  2  2687 "#..##..###\n..........\n.....##..#\n.#.#..##.#\n#.#..#..##\n#..…     2
    ##  3  3049 "##.#.#.###\n....##.###\n....##....\n#.........\n#.#...#..#\n#..…     3
    ##  4  1597 "###..##...\n##.....###\n.#..#..#.#\n#.......#.\n#.#.......\n.#.…     4
    ##  5  1301 "#.##.#.###\n#........#\n....#.....\n#.....####\n.#....#.##\n...…     5
    ##  6  3259 "..#####.#.\n.....#...#\n#...#.....\n...##...#.\n.#..#..##.\n.#.…     6
    ##  7  3989 "#..#..####\n..........\n#........#\n.#....#...\n..........\n#..…     7
    ##  8  3803 "#.####...#\n.###.#..#.\n....##..#.\n#........#\n..##..#...\n###…     8
    ##  9  2897 ".#..##.#.#\n..#.#...##\n#........#\n###.#..#.#\n...#..#.##\n...…     9
    ## 10  2843 "##.###..##\n#.#.......\n#....#....\n#..##.##..\n.##..#.##.\n#..…    10
    ## # … with 134 more rows
