— Day 21: Allergen Assessment —
================
Fleur Kelpin
Dec 20, 2020

    library(tidyverse)
    input <- tibble(line = read_lines("day21.txt")) %>%
      mutate(row = row_number()) %>%
      extract(line, c("ingredient", "allergen"), "(.*) \\(contains (.*)\\)") %>%
      separate_rows(allergen, sep = ", ") %>%
      separate_rows(ingredient, sep = " ")
    input

    ## # A tibble: 4,603 x 3
    ##    ingredient allergen   row
    ##    <chr>      <chr>    <int>
    ##  1 smfnh      nuts         1
    ##  2 svztk      nuts         1
    ##  3 rqqf       nuts         1
    ##  4 sfhvsx     nuts         1
    ##  5 xctnhp     nuts         1
    ##  6 bvn        nuts         1
    ##  7 krv        nuts         1
    ##  8 gkcplx     nuts         1
    ##  9 ngpq       nuts         1
    ## 10 hmhll      nuts         1
    ## # … with 4,593 more rows
…
